10 0 12.5811 11235 50 224.7 1071.57 100 10 100
10 0 11.7891 7675 50 153.5 1122.59 100 10 100
10 0 21.3135 19082 50 381.64 2423.14 100 10 100
10 0 7.56908 5297 50 105.94 447.873 100 10 100
10 0 13.446 10725 50 214.5 1229.38 100 10 100
10 0 12.2765 9915 50 198.3 1132.18 100 10 100
10 0 12.9689 10414 50 208.28 1216.35 100 10 100
10 0 17.9093 13051 50 261.02 1823.1 100 10 100
10 0 13.5195 11958 50 239.16 1387.2 100 10 100
10 0 13.9481 8896 50 177.92 1274.37 100 10 100
20 0 12.9333 31599 50 631.98 1017.07 100 20 100
20 0 12.9333 31599 50 631.98 1017.07 100 20 100
20 0 14.8117 30181 50 603.62 971.286 100 20 100
20 0 14.6485 20241 50 404.82 932.43 100 20 100
20 0 16.9048 37243 50 744.86 1226.26 100 20 100
20 0 12.1142 15379 50 307.58 492.367 100 20 100
20 0 15.3551 32355 50 647.1 1223.41 100 20 100
20 0 11.1743 19471 50 389.42 541.671 100 20 100
20 0 16.2848 24954 50 499.08 1150.07 100 20 100
20 0 14.2795 25691 50 513.82 710.667 100 20 100
30 0 21.4664 86676 50 1733.52 1786.67 100 30 100
30 0 35.8323 160996 50 3219.92 3768.07 100 30 100
30 0 20.53 61229 50 1224.58 1184.74 100 30 100
30 0 12.0481 28152 50 563.04 307.977 100 30 100
30 0 17.7311 67660 50 1353.2 1243.57 100 30 100
30 0 21.1289 85578 50 1711.56 1568.73 100 30 100
30 0 22.7172 52971 50 1059.42 1026.76 100 30 100
30 0 20.6992 64866 50 1297.32 1024.39 100 30 100
30 0 28.3871 91163 50 1823.26 1997.11 100 30 100
30 0 24.7751 103129 50 2062.58 2128.61 100 30 100
40 0 22.7838 80553 50 1611.06 863.135 100 40 100
40 0 18.8156 86841 50 1736.82 741.2 100 40 100
40 0 24.4359 170252 50 3405.04 1833.63 100 40 100
40 0 24.1298 119123 50 2382.46 1083.02 100 40 100
40 0 41.3083 299247 50 5984.94 3454.44 100 40 100
40 0 13.8934 53265 50 1065.3 455.501 100 40 100
40 0 21.6568 86087 50 1721.74 842.25 100 40 100
40 0 28.4277 128356 50 2567.12 1529.2 100 40 100
40 0 24.7125 153691 50 3073.82 2065.84 100 40 100
40 0 30.0313 207834 50 4156.68 2697.63 100 40 100
50 0 25.7001 192900 50 3858 1340.17 100 50 100
50 0 17.2397 68271 50 1365.42 429.561 100 50 100
50 0 23.0483 151670 50 3033.4 977.671 100 50 100
50 0 20.2537 165002 50 3300.04 1289.2 100 50 100
50 0 18.7969 106285 50 2125.7 675.597 100 50 100
50 0 23.6842 153461 50 3069.22 1110.63 100 50 100
50 0 27.6036 164583 50 3291.66 1150.66 100 50 100
50 0 26.8064 183382 50 3667.64 1503.58 100 50 100
50 0 44.6365 413930 50 8278.6 3134.66 100 50 100
50 0 25.2374 110060 50 2201.2 796.473 100 50 100
