0.1 30 25 94.0089 2321 1356 1.7116519174 0 5.69567 0 0
0.1 30 24 94.8235 2468 1353 1.82409460458 0 5.3289 0 0
0.1 30 21 86.6641 2416 1803 1.33998890738 0 4.08763 0 0
0.1 30 18 79.0093 2587 1686 1.53440094899 0 4.4306 0 0
0.1 30 27 97.3943 2631 1587 1.65784499055 0 5.13127 0 0
0.1 30 20 84.4998 2361 1586 1.48865069357 0 5.02312 0 0
0.1 30 19 88.9464 2611 1895 1.37783641161 0 4.89534 0 0
0.1 30 19 80.7449 2450 1684 1.45486935867 0 4.62787 0 0
0.1 30 26 95.5271 2508 1407 1.78251599147 0 5.93224 0 0
0.1 30 25 93.9471 2728 1446 1.88658367911 0 5.54864 0 0
0.2 30 17 79.4454 2512 3803 0.660531159611 0 3.66991 0 0
0.2 30 23 89.7986 1870 2736 0.683479532164 0 4.52607 0 0
0.2 30 24 92.1037 2492 2785 0.894793536804 0 4.2693 0 0
0.2 30 26 95.4988 2573 2118 1.21482530689 0 4.54202 0 0
0.2 30 19 84.4896 2743 3656 0.750273522976 0 3.90135 0 0
0.2 30 25 88.8649 1796 2869 0.626002091321 0 4.59161 0 0
0.2 30 23 90.3301 2151 2769 0.776814734561 0 5.12941 0 0
0.2 30 22 90.4683 2274 2901 0.783867631851 0 4.21809 0 0
0.2 30 25 96.1761 2349 3084 0.761673151751 0 5.00324 0 0
0.2 30 18 82.479 2450 3378 0.725281231498 0 4.07835 0 0
0.3 30 23 85.4656 2390 4074 0.586647029946 0 4.02635 0 0
0.3 30 24 90.6832 2490 4099 0.607465235423 0 4.04977 0 0
0.3 30 23 91.1308 1994 4433 0.44980825626 0 4.07173 0 0
0.3 30 19 83.7461 2278 4765 0.478069254984 0 3.9951 0 0
0.3 30 22 89.9928 2713 4649 0.583566358357 0 3.99441 0 0
0.3 30 24 91.7866 2643 3772 0.700689289502 0 4.03765 0 0
0.3 30 23 93.977 2210 4163 0.530867163104 0 4.28857 0 0
0.3 30 26 94.5632 2954 3904 0.756659836066 0 4.36646 0 0
0.3 30 25 94.5156 2854 3841 0.743035667795 0 4.25757 0 0
0.3 30 22 90.5105 2398 4855 0.493923789907 0 3.83042 0 0
0.4 30 26 95.2704 2406 5572 0.431801866475 0 3.86456 0 0
0.4 30 23 92.7555 2278 6348 0.358853182105 0 4.09368 0 0
0.4 30 26 95.1445 2265 4496 0.50378113879 0 4.11329 0 0
0.4 30 28 96.6122 2261 5826 0.388087881909 0 4.05653 0 0
0.4 30 16 79.2276 2381 7219 0.329824075357 0 3.62562 0 0
0.4 30 22 93.0252 2202 6263 0.351588695513 0 4.03374 0 0
0.4 30 17 81.0829 2025 7215 0.280665280665 0 3.76992 0 0
0.4 30 24 94.2659 2097 5006 0.418897323212 0 3.86869 0 0
0.4 30 19 82.8477 2203 6316 0.348796706776 0 3.77085 0 0
0.4 30 25 93.3427 2511 5506 0.456047947693 0 4.11975 0 0
0.5 30 24 92.2207 2356 6905 0.341202027516 0 3.87497 0 0
0.5 30 22 89.5361 2433 7687 0.31650839079 0 3.76697 0 0
0.5 30 20 87.0291 1745 7565 0.230667547918 0 3.77484 0 0
0.5 30 26 96.9633 2074 6022 0.344403852541 0 3.88243 0 0
0.5 30 25 94.0484 2239 6136 0.364895697523 0 3.90265 0 0
0.5 30 23 91.3134 2259 8075 0.279752321981 0 3.67183 0 0
0.5 30 27 96.3774 2394 6436 0.371970167806 0 4.1387 0 0
0.5 30 20 89.3652 2383 8842 0.269509160823 0 3.70806 0 0
0.5 30 26 93.4764 2586 6594 0.392174704277 0 3.79638 0 0
0.5 30 21 90.3129 2332 8761 0.266179659856 0 3.57493 0 0
