10 5 76.0555 228 2043 0.111600587372 0 12.0705 0 0
10 7 92.1474 309 1581 0.195445920304 0 13.0108 0 0
10 9 96.6132 295 1247 0.23656776263 0 14.9399 0 0
10 8 98.1907 319 1115 0.286098654709 0 15.3543 0 0
10 6 76.4525 194 1993 0.0973406924235 0 11.3848 0 0
10 8 95.0928 308 1719 0.179173938336 0 14.4619 0 0
10 9 91.6255 235 1156 0.203287197232 0 14.0225 0 0
10 9 99.7282 318 1354 0.234859675037 0 13.3309 0 0
10 8 88.8403 222 1140 0.194736842105 0 13.5526 0 0
10 7 87.5862 315 1842 0.171009771987 0 13.6808 0 0
20 16 91.7357 1070 1656 0.6461352657 0 8.59903 0 0
20 19 98.4354 1060 1304 0.812883435583 0 9.12193 0 0
20 18 98.7455 799 1123 0.711487088157 0 9.63045 0 0
20 17 94.0938 868 1110 0.781981981982 0 8.4009 0 0
20 18 97.4882 884 1306 0.676875957121 0 8.80934 0 0
20 16 91.6072 781 1386 0.563492063492 0 8.13492 0 0
20 16 89.6534 615 1323 0.46485260771 0 7.84203 0 0
20 18 95.2036 908 1130 0.803539823009 0 8.47345 0 0
20 15 89.7985 664 1528 0.434554973822 0 8.35733 0 0
20 17 92.2616 962 1482 0.649122807018 0 8.30972 0 0
30 26 95.461 2646 1177 2.24808836024 0 6.35231 0 0
30 29 99.9849 2801 1158 2.41882556131 0 6.83362 0 0
30 29 99.7404 2280 1375 1.65818181818 0 7.55394 0 0
30 28 96.9007 1502 1143 1.31408573928 0 6.67833 0 0
30 26 94.2793 1712 1141 1.50043821209 0 6.51475 0 0
30 25 96.9521 2290 1373 1.66788055353 0 6.76378 0 0
30 29 99.5734 2340 1124 2.08185053381 0 8.76928 0 0
30 26 97.251 1803 1227 1.46943765281 0 6.66667 0 0
30 28 98.7029 1813 1260 1.43888888889 0 7.50529 0 0
30 26 95.7913 2969 1339 2.21732636296 0 6.48992 0 0
40 37 97.7379 3249 1283 2.53234606391 0 5.38581 0 0
40 37 98.0305 4597 1308 3.51452599388 0 5.67278 0 0
40 37 98.815 3142 1091 2.87992667278 0 6.00825 0 0
40 37 98.2189 5081 1226 4.14437194127 0 5.96452 0 0
40 36 98.7815 4013 1553 2.58403090792 0 5.87572 0 0
40 38 98.7304 3285 1243 2.6427996782 0 5.75623 0 0
40 37 99.2033 4616 1238 3.72859450727 0 6.34895 0 0
40 36 98.6937 4364 1306 3.3415007657 0 5.19717 0 0
40 36 97.9446 5180 1357 3.81724392041 0 5.88615 0 0
40 36 97.889 3049 1207 2.52609776305 0 5.4536 0 0
50 46 98.7152 4894 1277 3.83241973375 0 5.42052 0 0
50 46 99.4235 7087 1371 5.16921954778 0 5.05033 0 0
50 44 98.3204 8005 1501 5.33311125916 0 4.82079 0 0
50 48 99.6225 6924 1330 5.20601503759 0 4.91729 0 0
50 45 98.5057 5578 1282 4.35101404056 0 5.24805 0 0
50 48 99.6752 6846 1243 5.50764279968 0 5.30491 0 0
50 48 98.9631 6373 1265 5.03794466403 0 5.70119 0 0
50 46 98.423 5344 1404 3.80626780627 0 5.31909 0 0
50 49 99.8309 6369 1283 4.96414653157 0 5.0226 0 0
50 48 98.2685 5363 1212 4.42491749175 0 4.98185 0 0
